208940 600005
539613 442621
511730 757039
715800 174246
576835 915116
519721 251348
294762 680520
573861 108413
282624 425598
585934 763110
905993 330560
189312 404444
394591 683742
859457 954803
200555 399810
584430 14122
5112 30938
143039 717799
946165 62676
21993 752115
369383 302892
863973 56227
358696 114183
898066 618297
804613 550909
975701 591293
712139 72354
193032 992991
149029 424682
102933 818195
303695 543309
103331 355669
735661 470683
931935 960110
717369 273901
536022 963411
530944 447085
401184 149312
812667 625319
841219 310040
835365 60558
755235 220491
272139 603119
741442 858417
219753 393921
598804 540491
882899 222060
563693 985435
683996 985357
107187 536810
622800 954935
698539 29418
720242 59020
133853 808652
848420 464896
692064 634879
518498 888146
100 187251
946605 906983
709970 30459
464838 471852
487690 835513
821756 584317
24430 849526
391721 797220
892858 851714
153216 983117
288724 763182
163012 488604
546409 784185
256901 297083
288662 181504
96843 687704
296171 659705
362981 382584
767829 773100
854938 982743
63887 906671
215799 647257
8815 990482
326449 883579
452509 247217
464290 128503
625589 16681
960119 568337
369352 697692
763059 702162
486191 838158
798659 652796
856832 113280
202903 6396
464349 322258
333783 395405
281158 693709
510097 919858
524513 801388
819052 301903
946380 507068
912770 866100
296768 421142
1066 118969
32837 88314
282799 182448
988671 393990
302496 465971
133113 541262
944974 109536
201569 377646
168587 185110
938474 870541
894365 728032
376106 541321
503983 664157
132157 723240
894222 424526
783747 262363
749909 761768
635176 213920
256352 661151
191444 120619
317598 251467
768684 957338
527521 519306
2923 775753
183006 530030
944726 543487
589081 893869
785166 702523
503226 439909
250336 288997
921478 39579
918846 387882
335818 685024
936741 287831
44569 2493
26192 220591
971178 684386
558817 295972
783572 603908
342031 216866
29866 892597
627243 956342
708004 17598
644463 498034
594640 419915
287664 89552
273580 892309
139649 383758
20410 919738
289080 465096
32751 727090
906067 14019
184697 901216
887358 60307
210717 29258
658189 929913
218115 637676
712995 102890
448348 778635
199879 375928
447640 826914
368216 261192
423431 915133
566109 23425
600438 821929
560169 833413
493475 341531
68032 689487
569482 864437
624570 984035
69665 660886
378087 573804
530692 81278
148878 200496
739342 165856
42095 379747
65089 68791
912395 76083
88060 126144
642306 658921
818168 548144
246728 15218
749233 604858
319528 984943
445241 398363
541986 557185
829920 135949
851398 650197
384909 953674
462868 838241
11027 829179
393869 747046
33368 200719
582510 773417
688041 564934
229347 312122
276098 149956
345848 67384
960380 266851
148972 637595
739004 595354
477094 819966
235827 352082
517345 133002
157608 415010
350806 232274
933354 626430
777367 429689
44124 99561
89193 779551
498253 186982
530134 778139
955147 654912
210245 478212
843426 462304
403169 566715
507635 221370
258499 381812
471720 628026
956359 40656
731471 613775
159446 564744
641187 152008
92401 984165
192576 347664
967756 494748
441780 286309
428571 126474
799345 194384
733315 346519
979258 513194
52594 415353
948724 751835
563178 850301
116855 641551
559326 591012
928264 668040
962989 29926
341209 857409
475734 218647
86344 727714
