1 10
1 100
100 200
1000 2000
4000 10000
495067 847115
653096 697303
903340 701076
748923 521515
327262 249436
198236 684772
309007 910635
288119 2755
238349 800866
235178 855772
342993 391055
786944 921703
82687 798046
156882 85420
340511 534328
932446 181467
682071 761411
824671 532681
981305 159842
626155 791536
382300 51575
346833 467342
584857 231068
665024 846150
110380 406877
288655 478780
258116 26731
845303 636149
363951 611202
395549 244956
957792 126247
86572 416455
688845 733681
370679 19930
562316 59266
42179 637089
157949 174381
480167 859174
807785 26726
690285 572036
565357 343402
875810 316158
245339 104982
844263 819440
855265 719086
43831 27665
578118 862088
329254 326190
733032 672983
483293 407157
948576 893082
847068 856975
930859 504897
713845 663987
567941 779207
211270 252887
653082 25061
957848 196293
336596 428118
880452 782125
909361 545724
137480 872864
612726 556264
661459 343457
185501 36763
912009 900754
198994 750406
368690 805893
891222 467696
48613 938485
883122 612627
467777 601072
492070 93855
598000 16624
296789 111661
205341 396445
789236 323895
75460 766295
844889 531410
121515 120766
564199 7038
540906 661858
830320 916263
554263 387452
761632 768331
385426 442928
986430 173583
210214 833746
875145 858983
959167 739274
48614 800025
716929 265186
592027 682201
209727 869902
367837 370513
727432 567144
477522 880755
20387 41685
78996 181090
748046 3378
367369 933939
307344 120664
559084 843319
900310 232053
1262 783598
175464 234481
529670 852332
915913 505780
685205 389820
61112 213792
776751 67004
488091 16142
743323 758341
581382 208846
622134 720755
437944 387947
72009 70687
743374 40357
358961 424033
331197 683490
797542 345133
327899 112217
407920 80176
943447 680397
646499 940410
772747 326234
107918 911771
46740 555439
818083 262344
959570 714542
459086 502973
963189 335192
528395 433515
54534 559289
89809 158255
390214 39847
803149 464443
878055 371522
576581 207323
600380 725970
410535 312376
37942 582187
165470 837199
27340 262408
451442 374899
126848 573720
358457 123521
542513 55850
952106 200908
519556 694185
512868 353865
304699 275304
800513 280381
52202 102337
320894 919955
119564 338899
650333 355345
287258 418482
844838 891667
621731 312225
334618 146635
294878 182373
814889 939165
616401 622183
439251 488885
329443 198149
418191 221887
740433 169275
654233 300008
412001 468084
13193 234043
987426 592533
320264 461636
389231 176539
939509 38921
332814 288977
625417 12453
650180 632479
792514 285377
665217 135969
10751 484287
191484 443620
305381 998506
864457 726521
559637 255676
345157 887918
303262 497765
497708 834497
626020 828365
579017 861791
956850 926754
700980 765494
862193 112040
580663 872777
651606 283835
155798 763357
153701 823287
950304 460190
883433 38417
36440 819204
506569 530617
836421 270153
622034 176467
549764 728168
752749 330851
89320 914577
92758 146759
476379 573728
208701 513458
596569 507303
238307 86705
62222 839091
856482 604293
894422 626618
644727 838453
45370 349083
931755 156012
283282 512689
725116 718424
938100 137745
826919 705712
160922 495037
370172 79208
521573 493556
109294 192519
152677 616410
622695 316977
807155 761458
840697 555827
506874 221020
551543 59757
443755 889848
